{
  "openapi": "3.0.0",
  "info": {
    "version": "1.0.0",
    "title": "Power Factors PtService OpenAPI Schema"
  },
  "servers": [
    {
      "url": "http://localhost:8080",
      "description": "Local development server"
    }
  ],
  "paths": {
    "/ptlist": {
      "get": {
        "description": "Returns a list of periodic tasks in the specified range.",
        "operationId": "GetPeriodicTasksInRange",
        "parameters": [
          {
            "name": "period",
            "in": "query",
            "schema": {
              "$ref" :  "#/components/schemas/Period"
            },
            "required": true,
            "description": "The periodicity of the tasks"
          },
          {
            "name": "tz",
            "in": "query",
            "schema": {
             "type": "string"
            },
            "required": true,
            "description": "TZ identifier of the timezone (e.g. Europe/Athens)"
          },
          {
            "name": "t1",
            "in": "query",
            "schema": {
              "type": "string"
            },
            "required": true,
            "description": "The start offset used to filter tasks, in RFC 5545 iCalendar format"
          },
          {
            "name": "t2",
            "in": "query",
            "schema": {
              "type": "string"
            },
            "required": true,
            "description": "The end offset used to filter tasks, in RFC 5545 iCalendar format"
          }
        ],
        "responses": {
          "200": {
            "$ref": "#/components/responses/GetPeriodicTasksInRangeResponse"
          },
          "400": {
            "$ref": "#/components/responses/BadRequestError"
          }
        }
      }
    }
  },
  "components": {
    "schemas": {
      "Period": {
        "type": "string",
        "enum": [
          "1h",
          "1d",
          "1mo",
          "1y"
        ]
      },
      "PeriodicTasks": {
        "type": "array",
        "items": {
          "$ref": "#/components/schemas/PeriodicTask"
        }
      },
      "PeriodicTask": {
        "type": "string"
      },
      "Error": {
        "type": "object",
        "properties": {
          "status": {
            "type": "string"
          },
          "desc": {
            "type": "string"
          }
        },
        "required": [
          "status",
          "desc"
        ]
      }
    },
    "responses": {
      "GetPeriodicTasksInRangeResponse": {
        "description": "List of periodic tasks in the specified range",
        "content": {
          "application/json": {
            "schema": {
              "$ref": "#/components/schemas/PeriodicTasks"
            }
          }
        }
      },
      "BadRequestError": {
        "description": "Bad request error",
        "content": {
          "application/json": {
            "schema": {
              "$ref": "#/components/schemas/Error"
            }
          }
        }
      },
      "NotFoundError": {
        "description": "Not found error",
        "content": {
          "application/json": {
            "schema": {
              "$ref": "#/components/schemas/Error"
            }
          }
        }
      }
    }
  }
}
